<?xml version="1.0" encoding="utf-8"?>
<!-- Generator: Adobe Illustrator 21.1.0, SVG Export Plug-In . SVG Version: 6.00 Build 0)  -->
<svg version="1.1" id="Capa_1" xmlns="http://www.w3.org/2000/svg" xmlns:xlink="http://www.w3.org/1999/xlink" x="0px" y="0px"
	 viewBox="0 0 586 170" style="enable-background:new 0 0 586 170;" xml:space="preserve">
<style type="text/css">
	.st0{fill:#FFFFFF;}
</style>
<g>
	<g>
		<path class="st0" d="M106.6,135h-7.8l-0.8-6.9h-0.5c-1.2,3.3-3.8,8-10.5,8c-5.4,0-10-4-10-12.6V96.1h8.6V119
			c0,7.6,0.8,9.1,3.8,9.1c5.8,0,8.7-8.4,8.7-15.7V96.1h8.6V135z M55.5,128.1c5.9,0,11-2.6,12.4-3.4v8c-2.6,1.1-8.1,3.4-14.5,3.4
			c-15.5,0-22.4-11.6-22.4-28.4C31,91.8,36.8,80,52,80c12.4,0,17.9,6.2,17.9,16h-10c0-5.6-0.9-9.2-7.9-9.2c-9.3,0-11,10.9-11,19.4
			C41,119.2,44.6,128.1,55.5,128.1 M147.8,20.5H17.3V151h130.5V20.5z"/>
	</g>
</g>
<g>
	<path class="st0" d="M212.7,134.9c-2,0.8-6.4,2.4-11.4,2.4c-12.1,0-17.5-8.7-17.5-21.7c0-12.3,4.5-21.4,16.5-21.4
		c9.7,0,14,5.6,14,12.9h-7.9c0-4.1-0.7-7.9-6.1-7.9c-7.4,0-8.7,8.7-8.7,15.3c0,10,2.8,17.4,11.4,17.4c4.6,0,8.5-2.5,9.7-3.2V134.9z"
		/>
	<path class="st0" d="M234.5,122.3c0-5.4-0.8-10.3-5.6-10.3c-4.8,0-5.6,4.8-5.6,10.3c0,5.3,0.7,10.3,5.6,10.3
		C233.7,132.6,234.5,127.6,234.5,122.3 M229,107.2c8.2,0,12.6,5.6,12.6,15.1c0,9.4-4.4,15.1-12.6,15.1c-8.3,0-12.8-5.7-12.8-15.1
		C216.2,112.8,220.7,107.2,229,107.2"/>
	<path class="st0" d="M263.9,122.2c0-4.5-0.7-9.8-5-9.8c-3.8,0-5,5.3-5,9.8c0,5.3,1.2,9.9,5,9.9C263.3,132.1,263.9,127,263.9,122.2
		 M271,122.2c0,8.3-3,15.1-9.9,15.1c-4.2,0-6-2.3-6.9-3.8h-0.4v13.9l-6.3,3.1h-0.4v-42.7h6.3l0.4,3.7h0.3c0.7-1.6,3.3-4.4,7-4.4
		C268.8,107.2,271,114.2,271,122.2"/>
	<path class="st0" d="M293.2,122.2c0-4.5-0.7-9.8-5-9.8c-3.8,0-5,5.3-5,9.8c0,5.3,1.2,9.9,5,9.9C292.7,132.1,293.2,127,293.2,122.2
		 M300.4,122.2c0,8.3-3,15.1-9.9,15.1c-4.2,0-6-2.3-6.9-3.8h-0.4v13.9l-6.3,3.1h-0.4v-42.7h6.3l0.4,3.7h0.3c0.7-1.6,3.3-4.4,7-4.4
		C298.2,107.2,300.4,114.2,300.4,122.2"/>
	<path class="st0" d="M321.1,118.7c0-0.4-0.3-7.1-5-7.1c-4,0-5.3,5.7-5.4,7.1H321.1z M327.5,122.8h-17c0,3.8,2.5,9.9,10.8,9.9
		c1.3,0,3.6-0.2,5-0.7v4.1c-2.1,0.8-4.6,1.3-7.9,1.3c-8.8,0-14-6.2-14-16.6c0-8.1,3.9-13.6,11.9-13.6c9.7,0,11.3,9.1,11.3,13.9
		V122.8z"/>
	<path class="st0" d="M338.9,107.9l0.5,5.4h0.4c1.6-2.9,3.5-6.1,9.3-6.1v7c-6.8,0-9.5,2.8-9.5,9.8v12.6H333v-28.8H338.9z"/>
</g>
<path class="st0" d="M390.7,120l-5.8-18.4h-0.1l-5.8,18.4H390.7z M389.2,94.9l14.2,41.7H396l-3.6-11.3h-15l-3.6,11.3h-7.4l14.3-41.7
	H389.2z"/>
<polygon class="st0" points="413.7,136.7 406.9,136.7 406.9,98.1 413.3,94.9 413.7,94.9 "/>
<polygon class="st0" points="428,136.7 421.3,136.7 421.3,98.1 427.7,94.9 428,94.9 "/>
<path class="st0" d="M442.3,136.7h-6.7v-28.8h6.7V136.7z M438.9,94.6c2,0,3.7,1.7,3.7,3.7c0,2-1.7,3.7-3.7,3.7c-2,0-3.6-1.7-3.6-3.7
	C435.3,96.3,436.9,94.6,438.9,94.6"/>
<path class="st0" d="M464.7,123.9c-4.4,0-9.6,1.3-9.6,5.2c0,2.3,1.3,3.4,3.6,3.4C463.1,132.6,464.7,127.9,464.7,123.9 M464.3,133.4
	c-0.8,1.8-2.7,4-7.3,4c-4.8,0-8.5-3-8.5-7.6c0-9.5,12.1-9.6,16.1-9.7v-2.8c0-2.8-0.7-5.2-4.1-5.2c-3.7,0-4.4,1.6-4.4,3.5h-6.6
	c0-5.5,3.7-8.3,11-8.3c7.1,0,10.5,3.1,10.5,9v20.4H465l-0.3-3.3H464.3z"/>
<path class="st0" d="M484.2,107.9l0.5,5.4h0.4c0.9-2.2,3.2-6.1,8.5-6.1c4.2,0,7.8,3,7.8,9.6v19.9h-6.7v-16.4c0-5.9-0.6-6.8-3-6.8
	c-4.5,0-6.8,6.2-6.8,10.8v12.4h-6.7v-28.8H484.2z"/>
<path class="st0" d="M522.4,137.3c-8.7,0-15.5-4.7-15.5-16.3c0-7.6,3.9-13.8,13.2-13.8c8.7,0,11,4.4,11,9.7H524
	c0-2.8-0.7-4.9-4.4-4.9c-3.7,0-5.5,3.5-5.5,7.8c0,5.9,3.2,12.8,11.9,12.8c1.9,0,3.4-0.2,4.8-0.7v4.1
	C528.3,136.9,525.5,137.3,522.4,137.3"/>
<path class="st0" d="M549.9,118.7c0-0.4-0.3-7.1-5-7.1c-4,0-5.3,5.7-5.4,7.1H549.9z M556.2,122.8h-17c0,3.8,2.5,9.9,10.8,9.9
	c1.3,0,3.6-0.2,5-0.7v4.1c-2.1,0.8-4.6,1.3-7.9,1.3c-8.8,0-14-6.2-14-16.6c0-8.1,3.9-13.6,11.9-13.6c9.7,0,11.3,9.1,11.3,13.9V122.8
	z"/>
<g>
	<path class="st0" d="M568.5,101.2c0,3.3-2.6,5.8-5.9,5.8c-3.3,0-5.9-2.6-5.9-5.8c0-3.2,2.6-5.8,5.9-5.8
		C565.9,95.4,568.5,98,568.5,101.2z M558.1,101.2c0,2.6,1.9,4.6,4.5,4.6c2.5,0,4.4-2,4.4-4.6c0-2.6-1.9-4.6-4.4-4.6
		C560,96.6,558.1,98.7,558.1,101.2z M561.7,104.2h-1.3v-5.8c0.5-0.1,1.3-0.2,2.2-0.2c1.1,0,1.6,0.2,2,0.4c0.3,0.2,0.6,0.7,0.6,1.3
		c0,0.6-0.5,1.1-1.2,1.3v0.1c0.6,0.2,0.9,0.6,1.1,1.4c0.2,0.9,0.3,1.2,0.4,1.4H564c-0.2-0.2-0.3-0.7-0.5-1.4
		c-0.1-0.6-0.5-0.9-1.2-0.9h-0.6V104.2z M561.7,101h0.6c0.7,0,1.3-0.2,1.3-0.8c0-0.5-0.4-0.9-1.2-0.9c-0.4,0-0.6,0-0.7,0.1V101z"/>
</g>
</svg>
